{
    "paths":
        {
            "resources": "./resources/",
            "sql_queries": "./resources/sql_queries/",
            "output": "./output/",
            "temp": "./temp/txt_table.txt"
        }
}